<?xml version="1.0" encoding="utf-8"?>
<!-- Generator: Adobe Illustrator 25.0.0, SVG Export Plug-In . SVG Version: 6.00 Build 0)  -->
<svg version="1.1" id="Layer_1" focusable="false" xmlns="http://www.w3.org/2000/svg" xmlns:xlink="http://www.w3.org/1999/xlink"
	 x="0px" y="0px" viewBox="0 0 512 512" style="enable-background:new 0 0 512 512;" xml:space="preserve">
<style type="text/css">
	.st0{fill:#757575;stroke:#FFFFFF;stroke-miterlimit:10;}
	.st1{fill:#FFFFFF;stroke:#757575;stroke-miterlimit:10;}
</style>
<circle class="st0" cx="256" cy="256" r="248"/>
<path class="st1" d="M369.9,239L234.4,103.5c-9.4-9.4-24.6-9.4-33.9,0l-17,17c-9.4,9.4-9.4,24.6,0,33.9L285.1,256L183.5,357.6
	c-9.4,9.4-9.4,24.6,0,33.9l17,17c9.4,9.4,24.6,9.4,33.9,0L369.9,273C379.3,263.6,379.3,248.4,369.9,239z"/>
</svg>
