<?xml version="1.0" encoding="utf-8"?>
<!-- Generator: Adobe Illustrator 25.0.0, SVG Export Plug-In . SVG Version: 6.00 Build 0)  -->
<svg version="1.1" id="Layer_1" focusable="false" xmlns="http://www.w3.org/2000/svg" xmlns:xlink="http://www.w3.org/1999/xlink"
	 x="0px" y="0px" viewBox="0 0 512 512" style="enable-background:new 0 0 512 512;" xml:space="preserve">
<style type="text/css">
	.st0{fill:#757575;stroke:#FFFFFF;stroke-miterlimit:10;}
	.st1{fill:#FFFFFF;stroke:#757575;stroke-miterlimit:10;}
</style>
<circle class="st0" cx="256" cy="256" r="248"/>
<path class="st1" d="M142.1,273l135.5,135.5c9.4,9.4,24.6,9.4,33.9,0l17-17c9.4-9.4,9.4-24.6,0-33.9L226.9,256l101.6-101.6
	c9.4-9.4,9.4-24.6,0-33.9l-17-17c-9.4-9.4-24.6-9.4-33.9,0L142.1,239C132.7,248.4,132.7,263.6,142.1,273z"/>
</svg>
